/* XPM */
static char *ranger_16x16[] = {
/* columns rows colors chars-per-pixel */
"16 14 123 2 ",
"   c None",
".  c #2C1501",
"X  c #391C02",
"o  c #3D3D3D",
"O  c #462002",
"+  c #542500",
"@  c #542604",
"#  c #4F2D16",
"$  c #5B3415",
"%  c #633D0D",
"&  c #703203",
"*  c #7C390A",
"=  c #7A3F18",
"-  c #422F20",
";  c #4B3E33",
":  c #42403E",
">  c #795321",
",  c #634A3A",
"<  c #4D4B4A",
"1  c #4F4F4F",
"2  c #5B5B5A",
"3  c #5D5D5D",
"4  c #6C574A",
"5  c #755846",
"6  c #7F5942",
"7  c #765B49",
"8  c #755D4F",
"9  c #7B5D49",
"0  c #7B5E4B",
"q  c #795D4C",
"w  c #7B5F4D",
"e  c #715D51",
"r  c #725E52",
"t  c #7D6150",
"y  c #7C6455",
"u  c #656564",
"i  c #6C6960",
"p  c #686867",
"a  c #6E6E6D",
"s  c #6E6E6E",
"d  c #766E67",
"f  c #7E736B",
"g  c #707171",
"h  c #737575",
"j  c #767675",
"k  c #767676",
"l  c #7A7A7A",
"z  c #7C7B7A",
"x  c #7F7F7F",
"c  c #8D4310",
"v  c #934C1C",
"b  c #AE4F0E",
"n  c #A84D11",
"m  c #A84F16",
"M  c #A5501A",
"N  c #BF5615",
"B  c #B0531A",
"V  c #B8561B",
"C  c #BC591B",
"Z  c #B0651C",
"A  c #824925",
"S  c #8B4D25",
"D  c #865A3F",
"F  c #995C37",
"G  c #AC5723",
"H  c #AB5C2C",
"J  c #B35820",
"K  c #A05E35",
"L  c #BD7525",
"P  c #A76237",
"I  c #BA6D3B",
"U  c #C55814",
"Y  c #CA5915",
"T  c #DD6319",
"R  c #D96B1D",
"E  c #E1661A",
"W  c #DD6B26",
"Q  c #8D6146",
"!  c #9F6542",
"~  c #926D56",
"^  c #A16642",
"/  c #837369",
"(  c #83756C",
")  c #857971",
"_  c #827A74",
"`  c #837B76",
"'  c #877C75",
"]  c #967F70",
"[  c #87827E",
"{  c #868584",
"}  c #928780",
"|  c #969695",
" . c #9F9D99",
".. c #A8A8A8",
"X. c #AAAAA9",
"o. c #ACAAA8",
"O. c #ACAAA9",
"+. c #ADABA9",
"@. c #AEABA9",
"#. c #ACACAC",
"$. c #ADADAD",
"%. c #AEAEAE",
"&. c #B1ADAA",
"*. c #B1B3B3",
"=. c #B5B6B6",
"-. c #B7B7B6",
";. c #B9B9B9",
":. c #BABAB9",
">. c #B9BABA",
",. c #BBBCBC",
"<. c #C1C1C0",
"1. c #C2C2C1",
"2. c #C2C4C4",
"3. c #C7C7C7",
"4. c #C6C8C8",
"5. c #CACAC9",
"6. c #CACBCB",
"7. c #CACCCC",
"8. c #CBCCCC",
"9. c #CCCECE",
"0. c #CDCFCF",
"q. c #D1D1D0",
"w. c #D1D2D1",
/* pixels */
"                                ",
"            L I                 ",
"          > R W F               ",
"  k :.:.*.5 Y H ] ..<.$.o       ",
"  i  .1.6.4 Q &.0.4.3.:.:       ",
"% Z S O.5.z ;.2.} 6 ` ,., #     ",
"  b G +.5.-.=.t B U 8 | -       ",
"  & v @.q.>.0 N E T V = .       ",
"    $ o.w.' A ^ K ! P 7 <   2 3 ",
"      X.8.w D [ / _ ) h x s l u ",
"      #.7.q ~ ( r e f g j 1 a   ",
"      %.9.9 m M C J y p         ",
"      d { ; + @ * n c           ",
"      X             O           "
};
