{
  "extras": [
    "lazyvim.plugins.extras.coding.luasnip",
    "lazyvim.plugins.extras.coding.mini-comment",
    "lazyvim.plugins.extras.coding.mini-surround",
    "lazyvim.plugins.extras.coding.yanky",
    "lazyvim.plugins.extras.editor.dial",
    "lazyvim.plugins.extras.lang.cmake",
    "lazyvim.plugins.extras.lang.git",
    "lazyvim.plugins.extras.lang.markdown",
    "lazyvim.plugins.extras.lang.yaml",
    "lazyvim.plugins.extras.util.dot"
  ],
  "news": {
    "NEWS.md": "6077"
  },
  "version": 6
}